%!PS-Adobe-3.0 EPSF-3.0
%%Creator: MATLAB, The Mathworks, Inc.
%%Title: C:\Users\Icesatim\Documents\PhD Study\PhD Thesis\Document_My_Works\Figures\RESLT_Biharmonic_Curvedelement\Rate_of_convergence_compare.ps
%%CreationDate: 06/15/2012  00:53:49
%%DocumentNeededFonts: Helvetica
%%DocumentProcessColors: Cyan Magenta Yellow Black
%%LanguageLevel: 2
%%Pages: 1
%%BoundingBox:    96   238   515   552
%%EndComments

%%BeginProlog
% MathWorks dictionary
/MathWorks 160 dict begin
% definition operators
/bdef {bind def} bind def
/ldef {load def} bind def
/xdef {exch def} bdef
/xstore {exch store} bdef
% operator abbreviations
/c  /clip ldef
/cc /concat ldef
/cp /closepath ldef
/gr /grestore ldef
/gs /gsave ldef
/mt /moveto ldef
/np /newpath ldef
/cm /currentmatrix ldef
/sm /setmatrix ldef
/rm /rmoveto ldef
/rl /rlineto ldef
/s {show newpath} bdef
/sc {setcmykcolor} bdef
/sr /setrgbcolor ldef
/sg /setgray ldef
/w /setlinewidth ldef
/j /setlinejoin ldef
/cap /setlinecap ldef
/rc {rectclip} bdef
/rf {rectfill} bdef
% page state control
/pgsv () def
/bpage {/pgsv save def} bdef
/epage {pgsv restore} bdef
/bplot /gsave ldef
/eplot {stroke grestore} bdef
% orientation switch
/portraitMode 0 def /landscapeMode 1 def /rotateMode 2 def
% coordinate system mappings
/dpi2point 0 def
% font control
/FontSize 0 def
/FMS {/FontSize xstore findfont [FontSize 0 0 FontSize neg 0 0]
  makefont setfont} bdef
/ISOLatin1Encoding where {pop /WindowsLatin1Encoding 256 array bdef
ISOLatin1Encoding WindowsLatin1Encoding copy pop
/.notdef/.notdef/quotesinglbase/florin/quotedblbase/ellipsis/dagger
/daggerdbl/circumflex/perthousand/Scaron/guilsinglleft/OE/.notdef/.notdef
/.notdef/.notdef/quoteleft/quoteright/quotedblleft/quotedblright/bullet
/endash/emdash/tilde/trademark/scaron/guilsinglright/oe/.notdef/.notdef
/Ydieresis WindowsLatin1Encoding 128 32 getinterval astore pop}
{/WindowsLatin1Encoding StandardEncoding bdef} ifelse
/reencode {exch dup where {pop load} {pop StandardEncoding} ifelse
  exch dup 3 1 roll findfont dup length dict begin
  { 1 index /FID ne {def}{pop pop} ifelse } forall
  /Encoding exch def currentdict end definefont pop} bdef
/isroman {findfont /CharStrings get /Agrave known} bdef
/FMSR {3 1 roll 1 index dup isroman {reencode} {pop pop} ifelse
  exch FMS} bdef
/csm {1 dpi2point div -1 dpi2point div scale neg translate
 dup landscapeMode eq {pop -90 rotate}
  {rotateMode eq {90 rotate} if} ifelse} bdef
% line types: solid, dotted, dashed, dotdash
/SO { [] 0 setdash } bdef
/DO { [.5 dpi2point mul 4 dpi2point mul] 0 setdash } bdef
/DA { [6 dpi2point mul] 0 setdash } bdef
/DD { [.5 dpi2point mul 4 dpi2point mul 6 dpi2point mul 4
  dpi2point mul] 0 setdash } bdef
% macros for lines and objects
/L {lineto stroke} bdef
/MP {3 1 roll moveto 1 sub {rlineto} repeat} bdef
/AP {{rlineto} repeat} bdef
/PDlw -1 def
/W {/PDlw currentlinewidth def setlinewidth} def
/PP {closepath eofill} bdef
/DP {closepath stroke} bdef
/MR {4 -2 roll moveto dup  0 exch rlineto exch 0 rlineto
  neg 0 exch rlineto closepath} bdef
/FR {MR stroke} bdef
/PR {MR fill} bdef
/L1i {{currentfile picstr readhexstring pop} image} bdef
/tMatrix matrix def
/MakeOval {newpath tMatrix currentmatrix pop translate scale
0 0 1 0 360 arc tMatrix setmatrix} bdef
/FO {MakeOval stroke} bdef
/PO {MakeOval fill} bdef
/PD {currentlinewidth 2 div 0 360 arc fill
   PDlw -1 eq not {PDlw w /PDlw -1 def} if} def
/FA {newpath tMatrix currentmatrix pop translate scale
  0 0 1 5 -2 roll arc tMatrix setmatrix stroke} bdef
/PA {newpath tMatrix currentmatrix pop	translate 0 0 moveto scale
  0 0 1 5 -2 roll arc closepath tMatrix setmatrix fill} bdef
/FAn {newpath tMatrix currentmatrix pop translate scale
  0 0 1 5 -2 roll arcn tMatrix setmatrix stroke} bdef
/PAn {newpath tMatrix currentmatrix pop translate 0 0 moveto scale
  0 0 1 5 -2 roll arcn closepath tMatrix setmatrix fill} bdef
/vradius 0 def /hradius 0 def /lry 0 def
/lrx 0 def /uly 0 def /ulx 0 def /rad 0 def
/MRR {/vradius xdef /hradius xdef /lry xdef /lrx xdef /uly xdef
  /ulx xdef newpath tMatrix currentmatrix pop ulx hradius add uly
  vradius add translate hradius vradius scale 0 0 1 180 270 arc 
  tMatrix setmatrix lrx hradius sub uly vradius add translate
  hradius vradius scale 0 0 1 270 360 arc tMatrix setmatrix
  lrx hradius sub lry vradius sub translate hradius vradius scale
  0 0 1 0 90 arc tMatrix setmatrix ulx hradius add lry vradius sub
  translate hradius vradius scale 0 0 1 90 180 arc tMatrix setmatrix
  closepath} bdef
/FRR {MRR stroke } bdef
/PRR {MRR fill } bdef
/MlrRR {/lry xdef /lrx xdef /uly xdef /ulx xdef /rad lry uly sub 2 div def
  newpath tMatrix currentmatrix pop ulx rad add uly rad add translate
  rad rad scale 0 0 1 90 270 arc tMatrix setmatrix lrx rad sub lry rad
  sub translate rad rad scale 0 0 1 270 90 arc tMatrix setmatrix
  closepath} bdef
/FlrRR {MlrRR stroke } bdef
/PlrRR {MlrRR fill } bdef
/MtbRR {/lry xdef /lrx xdef /uly xdef /ulx xdef /rad lrx ulx sub 2 div def
  newpath tMatrix currentmatrix pop ulx rad add uly rad add translate
  rad rad scale 0 0 1 180 360 arc tMatrix setmatrix lrx rad sub lry rad
  sub translate rad rad scale 0 0 1 0 180 arc tMatrix setmatrix
  closepath} bdef
/FtbRR {MtbRR stroke } bdef
/PtbRR {MtbRR fill } bdef
/stri 6 array def /dtri 6 array def
/smat 6 array def /dmat 6 array def
/tmat1 6 array def /tmat2 6 array def /dif 3 array def
/asub {/ind2 exch def /ind1 exch def dup dup
  ind1 get exch ind2 get sub exch } bdef
/tri_to_matrix {
  2 0 asub 3 1 asub 4 0 asub 5 1 asub
  dup 0 get exch 1 get 7 -1 roll astore } bdef
/compute_transform {
  dmat dtri tri_to_matrix tmat1 invertmatrix 
  smat stri tri_to_matrix tmat2 concatmatrix } bdef
/ds {stri astore pop} bdef
/dt {dtri astore pop} bdef
/db {2 copy /cols xdef /rows xdef mul dup 3 mul string
  currentfile 
  3 index 0 eq {/ASCIIHexDecode filter}
  {/ASCII85Decode filter 3 index 2 eq {/RunLengthDecode filter} if }
  ifelse exch readstring pop
  dup 0 3 index getinterval /rbmap xdef
  dup 2 index dup getinterval /gbmap xdef
  1 index dup 2 mul exch getinterval /bbmap xdef pop pop}bdef
/it {gs np dtri aload pop moveto lineto lineto cp c
  cols rows 8 compute_transform 
  rbmap gbmap bbmap true 3 colorimage gr}bdef
/il {newpath moveto lineto stroke}bdef
currentdict end def
%%EndProlog

%%BeginSetup
MathWorks begin

0 cap

end
%%EndSetup

%%Page: 1 1
%%BeginPageSetup
%%PageBoundingBox:    96   238   515   552
MathWorks begin
bpage
%%EndPageSetup

%%BeginObject: obj1
bplot

/dpi2point 12 def
portraitMode 1152 6624 csm

    0     0  5039  3762 rc
85 dict begin %Colortable dictionary
/c0 { 0.000000 0.000000 0.000000 sr} bdef
/c1 { 1.000000 1.000000 1.000000 sr} bdef
/c2 { 0.900000 0.000000 0.000000 sr} bdef
/c3 { 0.000000 0.820000 0.000000 sr} bdef
/c4 { 0.000000 0.000000 0.800000 sr} bdef
/c5 { 0.910000 0.820000 0.320000 sr} bdef
/c6 { 1.000000 0.260000 0.820000 sr} bdef
/c7 { 0.000000 0.820000 0.820000 sr} bdef
c0
1 j
1 sg
   0    0 5040 3763 rf
6 w
0 3067 3905 0 0 -3067 655 3348 4 MP
PP
-3905 0 0 3067 3905 0 0 -3067 655 3348 5 MP stroke
4 w
DO
SO
6 w
0 sg
 655  281 mt 4560  281 L
 655 3348 mt 4560 3348 L
4560 3348 mt 4560  281 L
 655 3348 mt  655  281 L
 655 3348 mt 4560 3348 L
 655 3348 mt  655  281 L
 655 3348 mt  655 3308 L
 655  282 mt  655  321 L
%%IncludeResource: font Helvetica
/Helvetica /WindowsLatin1Encoding 120 FMSR

 622 3493 mt 
(0) s
1212 3348 mt 1212 3308 L
1212  282 mt 1212  321 L
1096 3493 mt 
(0.05) s
1770 3348 mt 1770 3308 L
1770  282 mt 1770  321 L
1687 3493 mt 
(0.1) s
2328 3348 mt 2328 3308 L
2328  282 mt 2328  321 L
2212 3493 mt 
(0.15) s
2886 3348 mt 2886 3308 L
2886  282 mt 2886  321 L
2803 3493 mt 
(0.2) s
3444 3348 mt 3444 3308 L
3444  282 mt 3444  321 L
3328 3493 mt 
(0.25) s
4002 3348 mt 4002 3308 L
4002  282 mt 4002  321 L
3919 3493 mt 
(0.3) s
4560 3348 mt 4560 3308 L
4560  282 mt 4560  321 L
4444 3493 mt 
(0.35) s
 655 3348 mt  694 3348 L
4560 3348 mt 4520 3348 L
 554 3392 mt 
(0) s
 655 2837 mt  694 2837 L
4560 2837 mt 4520 2837 L
 554 2881 mt 
(1) s
 655 2326 mt  694 2326 L
4560 2326 mt 4520 2326 L
 554 2370 mt 
(2) s
 655 1815 mt  694 1815 L
4560 1815 mt 4520 1815 L
 554 1859 mt 
(3) s
 655 1304 mt  694 1304 L
4560 1304 mt 4520 1304 L
 554 1348 mt 
(4) s
 655  793 mt  694  793 L
4560  793 mt 4520  793 L
 554  837 mt 
(5) s
 655  282 mt  694  282 L
4560  282 mt 4520  282 L
 554  326 mt 
(6) s
 655  228 mt 
(x 10) s
%%IncludeResource: font Helvetica
/Helvetica /WindowsLatin1Encoding 80 FMSR

 881  154 mt 
(-4) s
 655  281 mt 4560  281 L
 655 3348 mt 4560 3348 L
4560 3348 mt 4560  281 L
 655 3348 mt  655  281 L
gs 655 282 3906 3067 rc
/c8 { 0.000000 0.000000 1.000000 sr} bdef
c8
-262 177 -730 30 -771 427 -1551 1993 4242 446 5 MP stroke
gs 855 373 3461 2774 rc
4206  446 mt 4278  446 L
4242  410 mt 4242  482 L
2655 2439 mt 2727 2439 L
2691 2403 mt 2691 2475 L
1884 2866 mt 1956 2866 L
1920 2830 mt 1920 2902 L
1154 2896 mt 1226 2896 L
1190 2860 mt 1190 2932 L
 892 3073 mt  964 3073 L
 928 3037 mt  928 3109 L
4217  421 mt 4267  471 L
4267  421 mt 4217  471 L
2666 2414 mt 2716 2464 L
2716 2414 mt 2666 2464 L
1895 2841 mt 1945 2891 L
1945 2841 mt 1895 2891 L
1165 2871 mt 1215 2921 L
1215 2871 mt 1165 2921 L
 903 3048 mt  953 3098 L
 953 3048 mt  903 3098 L
gr

/c9 { 0.000000 0.500000 0.000000 sr} bdef
c9
-262 0 -730 48 -771 141 -1551 535 4242 2623 5 MP stroke
gr

c9
gs 855 2550 3461 871 rc
  36   36 4242 2623 FO
  36   36 2691 3158 FO
  36   36 1920 3299 FO
  36   36 1190 3347 FO
  36   36  928 3347 FO
gr

gs 655 282 3906 3067 rc
gr

0 sg
%%IncludeResource: font Helvetica
/Helvetica /WindowsLatin1Encoding 120 FMSR

2573 3636 mt 
(h) s
 472 2035 mt  -90 rotate
(L) s
90 rotate
%%IncludeResource: font Helvetica
/Helvetica /WindowsLatin1Encoding 96 FMSR

 412 1969 mt  -90 rotate
(2) s
90 rotate
%%IncludeResource: font Helvetica
/Helvetica /WindowsLatin1Encoding 120 FMSR

 472 1916 mt  -90 rotate
(-error) s
90 rotate
1 sg
0 378 1377 0 0 -378 805 786 4 MP
PP
-1377 0 0 378 1377 0 0 -378 805 786 5 MP stroke
4 w
DO
SO
6 w
0 sg
 805  408 mt 2182  408 L
 805  786 mt 2182  786 L
2182  786 mt 2182  408 L
 805  786 mt  805  408 L
 805  786 mt 2182  786 L
 805  786 mt  805  408 L
 805  408 mt 2182  408 L
 805  786 mt 2182  786 L
2182  786 mt 2182  408 L
 805  786 mt  805  408 L
1273  555 mt 
(Straight element) s
gs 805 408 1378 379 rc
c8
360 0 877 513 2 MP stroke
gr

c8
1021  513 mt 1093  513 L
1057  477 mt 1057  549 L
1032  488 mt 1082  538 L
1082  488 mt 1032  538 L
gs 805 408 1378 379 rc
gr

0 sg
1273  724 mt 
(Curved element) s
gs 805 408 1378 379 rc
c9
360 0 877 681 2 MP stroke
gr

c9
  36   36 1057  681 FO
gs 805 408 1378 379 rc
gr


end %%Color Dict

eplot
%%EndObject

epage
end

showpage

%%Trailer
%%EOF
