%!PS-Adobe-3.0 EPSF-3.0
%%Creator: MATLAB, The Mathworks, Inc. Version 7.8.0.347 (R2009a). Operating System: Linux 2.6.9-89.33.1.ELsmp #1 SMP Thu Dec 2 01:05:15 CST 2010 i686.
%%Title: /home/wassamon/BellShapeFns/shape15.eps
%%CreationDate: 09/18/2012  15:15:22
%%DocumentNeededFonts: Helvetica
%%DocumentProcessColors: Cyan Magenta Yellow Black
%%LanguageLevel: 2
%%Pages: 1
%%BoundingBox:    72   252   520   589
%%EndComments

%%BeginProlog
% MathWorks dictionary
/MathWorks 160 dict begin
% definition operators
/bdef {bind def} bind def
/ldef {load def} bind def
/xdef {exch def} bdef
/xstore {exch store} bdef
% operator abbreviations
/c  /clip ldef
/cc /concat ldef
/cp /closepath ldef
/gr /grestore ldef
/gs /gsave ldef
/mt /moveto ldef
/np /newpath ldef
/cm /currentmatrix ldef
/sm /setmatrix ldef
/rm /rmoveto ldef
/rl /rlineto ldef
/s {show newpath} bdef
/sc {setcmykcolor} bdef
/sr /setrgbcolor ldef
/sg /setgray ldef
/w /setlinewidth ldef
/j /setlinejoin ldef
/cap /setlinecap ldef
/rc {rectclip} bdef
/rf {rectfill} bdef
% page state control
/pgsv () def
/bpage {/pgsv save def} bdef
/epage {pgsv restore} bdef
/bplot /gsave ldef
/eplot {stroke grestore} bdef
% orientation switch
/portraitMode 0 def /landscapeMode 1 def /rotateMode 2 def
% coordinate system mappings
/dpi2point 0 def
% font control
/FontSize 0 def
/FMS {/FontSize xstore findfont [FontSize 0 0 FontSize neg 0 0]
  makefont setfont} bdef
/reencode {exch dup where {pop load} {pop StandardEncoding} ifelse
  exch dup 3 1 roll findfont dup length dict begin
  { 1 index /FID ne {def}{pop pop} ifelse } forall
  /Encoding exch def currentdict end definefont pop} bdef
/isroman {findfont /CharStrings get /Agrave known} bdef
/FMSR {3 1 roll 1 index dup isroman {reencode} {pop pop} ifelse
  exch FMS} bdef
/csm {1 dpi2point div -1 dpi2point div scale neg translate
 dup landscapeMode eq {pop -90 rotate}
  {rotateMode eq {90 rotate} if} ifelse} bdef
% line types: solid, dotted, dashed, dotdash
/SO { [] 0 setdash } bdef
/DO { [.5 dpi2point mul 4 dpi2point mul] 0 setdash } bdef
/DA { [6 dpi2point mul] 0 setdash } bdef
/DD { [.5 dpi2point mul 4 dpi2point mul 6 dpi2point mul 4
  dpi2point mul] 0 setdash } bdef
% macros for lines and objects
/L {lineto stroke} bdef
/MP {3 1 roll moveto 1 sub {rlineto} repeat} bdef
/AP {{rlineto} repeat} bdef
/PDlw -1 def
/W {/PDlw currentlinewidth def setlinewidth} def
/PP {closepath eofill} bdef
/DP {closepath stroke} bdef
/MR {4 -2 roll moveto dup  0 exch rlineto exch 0 rlineto
  neg 0 exch rlineto closepath} bdef
/FR {MR stroke} bdef
/PR {MR fill} bdef
/L1i {{currentfile picstr readhexstring pop} image} bdef
/tMatrix matrix def
/MakeOval {newpath tMatrix currentmatrix pop translate scale
0 0 1 0 360 arc tMatrix setmatrix} bdef
/FO {MakeOval stroke} bdef
/PO {MakeOval fill} bdef
/PD {currentlinewidth 2 div 0 360 arc fill
   PDlw -1 eq not {PDlw w /PDlw -1 def} if} def
/FA {newpath tMatrix currentmatrix pop translate scale
  0 0 1 5 -2 roll arc tMatrix setmatrix stroke} bdef
/PA {newpath tMatrix currentmatrix pop	translate 0 0 moveto scale
  0 0 1 5 -2 roll arc closepath tMatrix setmatrix fill} bdef
/FAn {newpath tMatrix currentmatrix pop translate scale
  0 0 1 5 -2 roll arcn tMatrix setmatrix stroke} bdef
/PAn {newpath tMatrix currentmatrix pop translate 0 0 moveto scale
  0 0 1 5 -2 roll arcn closepath tMatrix setmatrix fill} bdef
/vradius 0 def /hradius 0 def /lry 0 def
/lrx 0 def /uly 0 def /ulx 0 def /rad 0 def
/MRR {/vradius xdef /hradius xdef /lry xdef /lrx xdef /uly xdef
  /ulx xdef newpath tMatrix currentmatrix pop ulx hradius add uly
  vradius add translate hradius vradius scale 0 0 1 180 270 arc 
  tMatrix setmatrix lrx hradius sub uly vradius add translate
  hradius vradius scale 0 0 1 270 360 arc tMatrix setmatrix
  lrx hradius sub lry vradius sub translate hradius vradius scale
  0 0 1 0 90 arc tMatrix setmatrix ulx hradius add lry vradius sub
  translate hradius vradius scale 0 0 1 90 180 arc tMatrix setmatrix
  closepath} bdef
/FRR {MRR stroke } bdef
/PRR {MRR fill } bdef
/MlrRR {/lry xdef /lrx xdef /uly xdef /ulx xdef /rad lry uly sub 2 div def
  newpath tMatrix currentmatrix pop ulx rad add uly rad add translate
  rad rad scale 0 0 1 90 270 arc tMatrix setmatrix lrx rad sub lry rad
  sub translate rad rad scale 0 0 1 270 90 arc tMatrix setmatrix
  closepath} bdef
/FlrRR {MlrRR stroke } bdef
/PlrRR {MlrRR fill } bdef
/MtbRR {/lry xdef /lrx xdef /uly xdef /ulx xdef /rad lrx ulx sub 2 div def
  newpath tMatrix currentmatrix pop ulx rad add uly rad add translate
  rad rad scale 0 0 1 180 360 arc tMatrix setmatrix lrx rad sub lry rad
  sub translate rad rad scale 0 0 1 0 180 arc tMatrix setmatrix
  closepath} bdef
/FtbRR {MtbRR stroke } bdef
/PtbRR {MtbRR fill } bdef
/stri 6 array def /dtri 6 array def
/smat 6 array def /dmat 6 array def
/tmat1 6 array def /tmat2 6 array def /dif 3 array def
/asub {/ind2 exch def /ind1 exch def dup dup
  ind1 get exch ind2 get sub exch } bdef
/tri_to_matrix {
  2 0 asub 3 1 asub 4 0 asub 5 1 asub
  dup 0 get exch 1 get 7 -1 roll astore } bdef
/compute_transform {
  dmat dtri tri_to_matrix tmat1 invertmatrix 
  smat stri tri_to_matrix tmat2 concatmatrix } bdef
/ds {stri astore pop} bdef
/dt {dtri astore pop} bdef
/db {2 copy /cols xdef /rows xdef mul dup 3 mul string
  currentfile 
  3 index 0 eq {/ASCIIHexDecode filter}
  {/ASCII85Decode filter 3 index 2 eq {/RunLengthDecode filter} if }
  ifelse exch readstring pop
  dup 0 3 index getinterval /rbmap xdef
  dup 2 index dup getinterval /gbmap xdef
  1 index dup 2 mul exch getinterval /bbmap xdef pop pop}bdef
/it {gs np dtri aload pop moveto lineto lineto cp c
  cols rows 8 compute_transform 
  rbmap gbmap bbmap true 3 colorimage gr}bdef
/il {newpath moveto lineto stroke}bdef
currentdict end def
%%EndProlog

%%BeginSetup
MathWorks begin

0 cap

end
%%EndSetup

%%Page: 1 1
%%BeginPageSetup
%%PageBoundingBox:    72   252   520   589
MathWorks begin
bpage
%%EndPageSetup

%%BeginObject: obj1
bplot

/dpi2point 12 def
portraitMode 0864 7068 csm

    0     0  5386  4034 rc
85 dict begin %Colortable dictionary
/c0 { 0.000000 0.000000 0.000000 sr} bdef
/c1 { 1.000000 1.000000 1.000000 sr} bdef
/c2 { 0.900000 0.000000 0.000000 sr} bdef
/c3 { 0.000000 0.820000 0.000000 sr} bdef
/c4 { 0.000000 0.000000 0.800000 sr} bdef
/c5 { 0.910000 0.820000 0.320000 sr} bdef
/c6 { 1.000000 0.260000 0.820000 sr} bdef
/c7 { 0.000000 0.820000 0.820000 sr} bdef
c0
1 j
1 sg
   0    0 5387 4035 rf
6 w
0 1019 -1700 1345 0 -1020 2400 1322 4 MP
PP
1700 -1344 0 1019 -1700 1345 0 -1020 2400 1322 5 MP stroke
1700 -1344 -2473 -923 -1701 1344 4874 2245 4 MP
PP
2474 923 1700 -1344 -2473 -923 -1701 1344 4874 2245 5 MP stroke
0 1020 -2474 -924 0 -1019 4874 2245 4 MP
PP
2474 923 0 1020 -2474 -924 0 -1019 4874 2245 5 MP stroke
4 w
DO
0 sg
3173 3589 mt 4874 2245 L
4874 2245 mt 4874 1226 L
2555 3359 mt 4255 2014 L
4255 2014 mt 4255  995 L
1936 3128 mt 3637 1784 L
3637 1784 mt 3637  764 L
1318 2897 mt 3018 1553 L
3018 1553 mt 3018  533 L
 700 2666 mt 2400 1322 L
2400 1322 mt 2400  302 L
4874 2245 mt 2400 1322 L
2400 1322 mt 2400  302 L
4533 2514 mt 2060 1590 L
2060 1590 mt 2060  571 L
4193 2783 mt 1720 1859 L
1720 1859 mt 1720  840 L
3853 3052 mt 1380 2128 L
1380 2128 mt 1380 1109 L
3513 3321 mt 1040 2397 L
1040 2397 mt 1040 1378 L
3173 3589 mt  700 2666 L
 700 2666 mt  700 1647 L
 700 2666 mt 2400 1322 L
2400 1322 mt 4874 2245 L
 700 2156 mt 2400  812 L
2400  812 mt 4874 1736 L
 700 1647 mt 2400  302 L
2400  302 mt 4874 1226 L
SO
6 w
3173 3589 mt  700 2666 L
4874 2245 mt 3173 3589 L
 700 2666 mt  700 1647 L
3173 3589 mt 3122 3630 L
%%IncludeResource: font Helvetica
/Helvetica /ISOLatin1Encoding 120 FMSR

3028 3763 mt 
(0) s
2555 3359 mt 2503 3399 L
2310 3532 mt 
(0.5) s
1936 3128 mt 1885 3169 L
1792 3301 mt 
(1) s
1318 2897 mt 1266 2938 L
1073 3070 mt 
(1.5) s
 700 2666 mt  648 2707 L
 555 2839 mt 
(2) s
4874 2245 mt 4935 2268 L
4968 2392 mt 
(0) s
4533 2514 mt 4595 2537 L
4628 2660 mt 
(0.1) s
4193 2783 mt 4255 2806 L
4288 2929 mt 
(0.2) s
3853 3052 mt 3915 3075 L
3948 3198 mt 
(0.3) s
3513 3321 mt 3575 3344 L
3608 3467 mt 
(0.4) s
3173 3589 mt 3235 3613 L
3268 3736 mt 
(0.5) s
 700 2666 mt  638 2643 L
 539 2675 mt 
(0) s
 700 2156 mt  638 2133 L
 305 2165 mt 
(0.005) s
 700 1647 mt  638 1624 L
 372 1655 mt 
(0.01) s
gs 700 302 4175 3288 rc
/c8 { 0.000000 0.000000 0.562500 sr} bdef
c8
86 238 -275 -102 4874 2245 3 MP
PP
0 sg
189 -136 86 238 -275 -102 4874 2245 4 MP stroke
c8
275 110 -189 128 4599 2143 3 MP
PP
0 sg
-86 -238 275 110 -189 128 4599 2143 4 MP stroke
/c9 { 0.000000 0.062500 1.000000 sr} bdef
c9
-275 -110 189 -79 4496 2460 3 MP
PP
0 sg
86 189 -275 -110 189 -79 4496 2460 4 MP stroke
/c10 { 0.000000 0.000000 0.750000 sr} bdef
c10
-275 -103 464 -8 4135 2151 3 MP
PP
0 sg
-189 111 -275 -103 464 -8 4135 2151 4 MP stroke
c10
189 -128 275 120 4135 2151 3 MP
PP
0 sg
-464 8 189 -128 275 120 4135 2151 4 MP stroke
c9
-189 2 -275 -127 4496 2460 3 MP
PP
0 sg
464 125 -189 2 -275 -127 4496 2460 4 MP stroke
c9
275 149 -464 -125 4496 2460 3 MP
PP
0 sg
189 -24 275 149 -464 -125 4496 2460 4 MP stroke
c9
-189 62 -86 -189 4496 2460 3 MP
PP
0 sg
275 127 -189 62 -86 -189 4496 2460 4 MP stroke
/c11 { 0.000000 0.187500 1.000000 sr} bdef
c11
-275 -120 189 -62 4221 2333 3 MP
PP
0 sg
86 182 -275 -120 189 -62 4221 2333 4 MP stroke
c8
86 214 -275 -103 4324 2040 3 MP
PP
0 sg
189 -111 86 214 -275 -103 4324 2040 4 MP stroke
/c12 { 1.000000 1.000000 0.000000 sr} bdef
c12
189 -14 275 168 3843 2330 3 MP
PP
0 sg
-464 -154 189 -14 275 168 3843 2330 4 MP stroke
/c13 { 0.000000 0.812500 1.000000 sr} bdef
c13
-189 -5 -275 -149 4307 2484 3 MP
PP
0 sg
464 154 -189 -5 -275 -149 4307 2484 4 MP stroke
/c14 { 0.062500 1.000000 0.937500 sr} bdef
c14
-275 -160 189 -2 4032 2335 3 MP
PP
0 sg
86 162 -275 -160 189 -2 4032 2335 4 MP stroke
c10
275 160 -189 22 4135 2151 3 MP
PP
0 sg
-86 -182 275 160 -189 22 4135 2151 4 MP stroke
c8
275 124 -189 90 4049 1937 3 MP
PP
0 sg
-86 -214 275 124 -189 90 4049 1937 4 MP stroke
/c15 { 0.000000 0.562500 1.000000 sr} bdef
c15
-464 -146 189 -22 3946 2173 3 MP
PP
0 sg
275 168 -464 -146 189 -22 3946 2173 4 MP stroke
/c16 { 0.000000 0.937500 1.000000 sr} bdef
c16
-275 -124 464 146 3671 2005 3 MP
PP
0 sg
-189 -22 -275 -124 464 146 3671 2005 4 MP stroke
/c17 { 1.000000 0.875000 0.000000 sr} bdef
c17
-275 -168 189 -63 3929 2561 3 MP
PP
0 sg
86 231 -275 -168 189 -63 3929 2561 4 MP stroke
/c18 { 0.000000 0.000000 0.875000 sr} bdef
c18
-275 -102 189 -90 3860 2027 3 MP
PP
0 sg
86 192 -275 -102 189 -90 3860 2027 4 MP stroke
c15
275 203 -189 -41 3946 2173 3 MP
PP
0 sg
-86 -162 275 203 -189 -41 3946 2173 4 MP stroke
/c19 { 1.000000 0.187500 0.000000 sr} bdef
c19
189 5 275 233 3568 2097 3 MP
PP
0 sg
-464 -238 189 5 275 233 3568 2097 4 MP stroke
c14
-189 -35 -275 -203 4032 2335 3 MP
PP
0 sg
464 238 -189 -35 -275 -203 4032 2335 4 MP stroke
/c20 { 0.687500 1.000000 0.312500 sr} bdef
c20
-464 -244 189 41 3757 2132 3 MP
PP
0 sg
275 203 -464 -244 189 41 3757 2132 4 MP stroke
c15
-189 -76 -275 -168 3946 2173 3 MP
PP
0 sg
464 244 -189 -76 -275 -168 3946 2173 4 MP stroke
/c21 { 1.000000 0.375000 0.000000 sr} bdef
c21
-86 -231 275 179 3654 2382 3 MP
PP
0 sg
-189 52 -86 -231 275 179 3654 2382 4 MP stroke
/c22 { 1.000000 0.500000 0.000000 sr} bdef
c22
189 -161 275 176 3465 2546 3 MP
PP
0 sg
-464 -15 189 -161 275 176 3465 2546 4 MP stroke
c22
-275 -179 464 15 3465 2546 3 MP
PP
0 sg
-189 164 -275 -179 464 15 3465 2546 4 MP stroke
c8
275 122 -189 70 3774 1835 3 MP
PP
0 sg
-86 -192 275 122 -189 70 3774 1835 4 MP stroke
c16
-275 -122 189 22 3671 2005 3 MP
PP
0 sg
86 100 -275 -122 189 22 3671 2005 4 MP stroke
c21
-275 -233 189 -52 3654 2382 3 MP
PP
0 sg
86 285 -275 -233 189 -52 3654 2382 4 MP stroke
c8
86 173 -275 -103 3774 1835 3 MP
PP
0 sg
189 -70 86 173 -275 -103 3774 1835 4 MP stroke
/c23 { 1.000000 0.687500 0.000000 sr} bdef
c23
189 35 86 168 3482 1929 3 MP
PP
0 sg
-275 -203 189 35 86 168 3482 1929 4 MP stroke
/c24 { 0.312500 1.000000 0.687500 sr} bdef
c24
-275 -176 189 -273 3551 2995 3 MP
PP
0 sg
86 449 -275 -176 189 -273 3551 2995 4 MP stroke
c16
-189 -51 -86 -100 3671 2005 3 MP
PP
0 sg
275 151 -189 -51 -86 -100 3671 2005 4 MP stroke
c23
-275 -151 189 76 3482 1929 3 MP
PP
0 sg
86 75 -275 -151 189 76 3482 1929 4 MP stroke
c22
-275 -230 189 -164 3465 2546 3 MP
PP
0 sg
86 394 -275 -230 189 -164 3465 2546 4 MP stroke
/c25 { 0.625000 0.000000 0.000000 sr} bdef
c25
-86 -285 275 230 3379 2152 3 MP
PP
0 sg
-189 55 -86 -285 275 230 3379 2152 4 MP stroke
c8
275 113 -189 60 3499 1732 3 MP
PP
0 sg
-86 -173 275 113 -189 60 3499 1732 4 MP stroke
/c26 { 0.250000 1.000000 0.750000 sr} bdef
c26
189 51 275 111 3121 1743 3 MP
PP
0 sg
-464 -162 189 51 275 111 3121 1743 4 MP stroke
c9
464 162 -189 -49 3310 1792 3 MP
PP
0 sg
-275 -113 464 162 -189 -49 3310 1792 4 MP stroke
c19
275 128 -464 -73 3568 2097 3 MP
PP
0 sg
189 -55 275 128 -464 -73 3568 2097 4 MP stroke
c19
-189 127 -275 -200 3568 2097 3 MP
PP
0 sg
464 73 -189 127 -275 -200 3568 2097 4 MP stroke
c25
-86 -168 275 200 3293 1897 3 MP
PP
0 sg
-189 -32 -86 -168 275 200 3293 1897 4 MP stroke
c24
86 488 -275 -153 3551 2995 3 MP
PP
0 sg
189 -335 86 488 -275 -153 3551 2995 4 MP stroke
c22
275 153 -189 296 3465 2546 3 MP
PP
0 sg
-86 -449 275 153 -189 296 3465 2546 4 MP stroke
c9
-275 -102 464 40 3035 1692 3 MP
PP
0 sg
-189 62 -275 -102 464 40 3035 1692 4 MP stroke
c9
189 -60 275 100 3035 1692 3 MP
PP
0 sg
-464 -40 189 -60 275 100 3035 1692 4 MP stroke
c9
-189 128 -274 -79 3035 1692 3 MP
PP
0 sg
463 -49 -189 128 -274 -79 3035 1692 4 MP stroke
c9
189 -5 274 -44 2572 1741 3 MP
PP
0 sg
-463 49 189 -5 274 -44 2572 1741 4 MP stroke
c26
-188 171 -275 -46 3121 1743 3 MP
PP
0 sg
463 -125 -188 171 -275 -46 3121 1743 4 MP stroke
c13
189 1 274 -126 2658 1868 3 MP
PP
0 sg
-463 125 189 1 274 -126 2658 1868 4 MP stroke
c26
-189 -1 -275 -111 3396 1854 3 MP
PP
0 sg
464 112 -189 -1 -275 -111 3396 1854 4 MP stroke
/c27 { 1.000000 0.812500 0.000000 sr} bdef
c27
189 73 275 39 2932 1742 3 MP
PP
0 sg
-464 -112 189 73 275 39 2932 1742 4 MP stroke
/c28 { 1.000000 0.437500 0.000000 sr} bdef
c28
464 102 -189 46 3207 1781 3 MP
PP
0 sg
-275 -148 464 102 -189 46 3207 1781 4 MP stroke
/c29 { 0.812500 0.000000 0.000000 sr} bdef
c29
189 32 275 70 3018 1827 3 MP
PP
0 sg
-464 -102 189 32 275 70 3018 1827 4 MP stroke
c23
-189 -73 -86 -75 3482 1929 3 MP
PP
0 sg
275 148 -189 -73 -86 -75 3482 1929 4 MP stroke
c25
275 175 -189 219 3379 2152 3 MP
PP
0 sg
-86 -394 275 175 -189 219 3379 2152 4 MP stroke
c22
-189 419 -275 -175 3465 2546 3 MP
PP
0 sg
464 -244 -189 419 -275 -175 3465 2546 4 MP stroke
c24
189 -296 275 52 3001 2790 3 MP
PP
0 sg
-464 244 189 -296 275 52 3001 2790 4 MP stroke
/c30 { 0.500000 0.000000 0.000000 sr} bdef
c30
189 -219 86 347 3104 2024 3 MP
PP
0 sg
-275 -128 189 -219 86 347 3104 2024 4 MP stroke
c11
86 362 -275 -103 3362 3330 3 MP
PP
0 sg
189 -259 86 362 -275 -103 3362 3330 4 MP stroke
c11
-189 385 -86 -488 3362 3330 3 MP
PP
0 sg
275 103 -189 385 -86 -488 3362 3330 4 MP stroke
c9
189 49 86 51 3035 1692 3 MP
PP
0 sg
-275 -100 189 49 86 51 3035 1692 4 MP stroke
c25
-189 323 -275 -70 3293 1897 3 MP
PP
0 sg
464 -253 -189 323 -275 -70 3293 1897 4 MP stroke
c17
189 -127 275 -126 2829 2150 3 MP
PP
0 sg
-464 253 189 -127 275 -126 2829 2150 4 MP stroke
c24
189 -385 86 437 3001 2790 3 MP
PP
0 sg
-275 -52 189 -385 86 437 3001 2790 4 MP stroke
c8
86 165 -275 -103 3224 1630 3 MP
PP
0 sg
189 -62 86 165 -275 -103 3224 1630 4 MP stroke
c29
-275 -39 189 -46 3018 1827 3 MP
PP
0 sg
86 85 -275 -39 189 -46 3018 1827 4 MP stroke
/c31 { 1.000000 0.062500 0.000000 sr} bdef
c31
86 376 -275 43 3190 2371 3 MP
PP
0 sg
189 -419 86 376 -275 43 3190 2371 4 MP stroke
/c32 { 1.000000 0.937500 0.000000 sr} bdef
c32
-86 -347 275 -43 2915 2414 3 MP
PP
0 sg
-189 390 -86 -347 275 -43 2915 2414 4 MP stroke
c16
-86 -51 275 46 2846 1697 3 MP
PP
0 sg
-189 5 -86 -51 275 46 2846 1697 4 MP stroke
c17
189 -390 86 264 2829 2150 3 MP
PP
0 sg
-275 126 189 -390 86 264 2829 2150 4 MP stroke
c8
274 79 -188 86 2949 1527 3 MP
PP
0 sg
-86 -165 274 79 -188 86 2949 1527 4 MP stroke
c29
85 166 -274 157 3018 1827 3 MP
PP
0 sg
189 -323 85 166 -274 157 3018 1827 4 MP stroke
c27
274 -157 -188 242 2932 1742 3 MP
PP
0 sg
-86 -85 274 -157 -188 242 2932 1742 4 MP stroke
/c33 { 0.000000 0.000000 0.937500 sr} bdef
c33
-274 -103 188 -86 2761 1613 3 MP
PP
0 sg
86 189 -274 -103 188 -86 2761 1613 4 MP stroke
/c34 { 0.625000 1.000000 0.375000 sr} bdef
c34
-274 126 188 -242 2744 1984 3 MP
PP
0 sg
86 116 -274 126 188 -242 2744 1984 4 MP stroke
c16
86 127 -274 44 2846 1697 3 MP
PP
0 sg
188 -171 86 127 -274 44 2846 1697 4 MP stroke
c33
86 181 -275 -53 2761 1613 3 MP
PP
0 sg
189 -128 86 181 -275 -53 2761 1613 4 MP stroke
c8
275 53 -189 136 2675 1424 3 MP
PP
0 sg
-86 -189 275 53 -189 136 2675 1424 4 MP stroke
/c35 { 0.000000 0.000000 0.625000 sr} bdef
c35
-275 -102 189 -136 2486 1560 3 MP
PP
0 sg
86 238 -275 -102 189 -136 2486 1560 4 MP stroke
gr


end %%Color Dict

eplot
%%EndObject

epage
end

showpage

%%Trailer
%%EOF
